10 Evaluation – R Programming
…
Show the code
grouped_mean <- function(data, summary_var, ...) {
  summary_var <- enquo(summary_var)
    group_var <- enquos(...)
 
  data %>%
    group_by(!!!group_var) %>%   ### 准引用  unquote-splice !!! ，发音为 bang-bang-bang，取消引用多个参数
    summarise(mean = mean(!!summary_var))
}

grouped_mean(mtcars, cyl, mpg)
#> # A tibble: 25 × 2
#>      mpg  mean
#>    <dbl> <dbl>
#>  1  10.4     8
#>  2  13.3     8
#>  3  14.3     8
#>  4  14.7     8
#>  5  15       8
#>  6  15.2     8
#>  7  15.5     8
#>  8  15.8     8
#>  9  16.4     8
#> 10  17.3     8
#> # ℹ 15 more rows
…
